<?xml version="1.0" encoding="UTF-8" standalone="no"?>
<svg xmlns:xlink="http://www.w3.org/1999/xlink" height="4.1px" width="28.5px" xmlns="http://www.w3.org/2000/svg">
  <g transform="matrix(1, 0, 0, 1, 14.25, -0.4)">
    <path d="M14.0 0.65 Q14.0 4.25 8.6 4.25 3.25 4.25 3.25 0.65 M-3.25 0.65 Q-3.25 4.25 -8.65 4.25 -14.0 4.25 -14.0 0.65" fill="none" stroke="#330000" stroke-linecap="round" stroke-linejoin="round" stroke-width="0.5"/>
  </g>
</svg>
