<?xml version="1.0" encoding="UTF-8" standalone="no"?>
<svg xmlns:xlink="http://www.w3.org/1999/xlink" height="40.95px" width="35.6px" xmlns="http://www.w3.org/2000/svg">
  <g transform="matrix(1, 0, 0, 1, 17.8, 24.75)">
    <path d="M17.8 -3.4 L13.85 16.2 -13.8 16.2 -17.8 -3.4 -17.8 -3.7 Q-17.8 -12.4 -12.6 -18.6 -7.35 -24.75 0.0 -24.75 7.35 -24.75 12.55 -18.6 17.8 -12.4 17.8 -3.7 L17.8 -3.4" fill="#ffcc99" fill-rule="evenodd" stroke="none"/>
  </g>
</svg>
