<?xml version="1.0" encoding="UTF-8" standalone="no"?>
<svg xmlns:xlink="http://www.w3.org/1999/xlink" height="59.95px" width="105.85px" xmlns="http://www.w3.org/2000/svg">
  <g transform="matrix(1, 0, 0, 1, 52.8, 29.95)">
    <path d="M-11.35 -1.25 Q-11.75 -10.65 -16.95 -17.3 L-16.95 -17.4 Q-22.0 -24.0 -28.95 -24.05 -36.1 -23.95 -41.0 -17.4 -46.55 -10.15 -46.55 0.05 -46.55 10.2 -41.0 17.45 -36.1 24.0 -28.95 24.1 -22.0 24.0 -16.95 17.45 -11.4 10.2 -11.35 0.05 L-11.35 -1.15 -11.35 -1.25 M17.8 -16.45 Q12.85 -10.15 12.5 -1.2 L12.5 -1.1 12.5 0.05 Q12.5 9.7 17.8 16.6 22.45 22.85 29.25 22.95 35.85 22.85 40.7 16.6 45.95 9.7 46.0 0.05 45.95 -9.65 40.7 -16.55 35.85 -22.85 29.25 -22.9 22.45 -22.85 17.8 -16.55 L17.8 -16.45 M12.15 -20.8 Q19.05 -30.05 29.25 -29.95 39.2 -30.05 46.35 -20.8 53.05 -12.15 53.05 0.05 53.05 12.2 46.35 20.85 39.2 30.1 29.25 30.0 19.05 30.1 12.15 20.85 6.05 13.0 5.5 2.3 L-5.25 2.3 Q-5.8 13.0 -11.85 20.85 -19.05 30.1 -28.95 30.0 -39.15 30.1 -46.1 20.85 -52.8 12.2 -52.8 0.05 -52.8 -12.15 -46.1 -20.8 -39.15 -30.05 -28.95 -29.95 -19.05 -30.05 -11.85 -20.8 L-11.85 -20.85 Q-6.5 -14.0 -5.4 -4.75 L5.7 -4.75 Q6.75 -14.0 12.15 -20.85 L12.15 -20.8" fill="#330000" fill-rule="evenodd" stroke="none"/>
  </g>
</svg>
