<?xml version="1.0" encoding="UTF-8" standalone="no"?>
<svg xmlns:xlink="http://www.w3.org/1999/xlink" height="13.85px" width="29.35px" xmlns="http://www.w3.org/2000/svg">
  <g transform="matrix(1, 0, 0, 1, 14.7, 6.95)">
    <path d="M-0.05 -6.45 Q5.85 -6.45 10.0 -4.55 14.15 -2.65 14.15 0.0 14.15 2.65 10.0 4.55 5.85 6.4 -0.05 6.4 -5.9 6.4 -10.05 4.55 -14.2 2.65 -14.2 0.0 -14.2 -2.65 -10.05 -4.55 -5.9 -6.45 -0.05 -6.45" fill="#330000" fill-rule="evenodd" stroke="none"/>
    <path d="M-0.05 -6.45 Q5.85 -6.45 10.0 -4.55 14.15 -2.65 14.15 0.0 14.15 2.65 10.0 4.55 5.85 6.4 -0.05 6.4 -5.9 6.4 -10.05 4.55 -14.2 2.65 -14.2 0.0 -14.2 -2.65 -10.05 -4.55 -5.9 -6.45 -0.05 -6.45" fill="none" stroke="#330000" stroke-linecap="round" stroke-linejoin="round" stroke-width="1.0"/>
  </g>
</svg>
