<?xml version="1.0" encoding="UTF-8" standalone="no"?>
<svg xmlns:xlink="http://www.w3.org/1999/xlink" height="16.2px" width="48.9px" xmlns="http://www.w3.org/2000/svg">
  <g transform="matrix(1, 0, 0, 1, 24.45, 8.1)">
    <path d="M-7.4 -6.75 Q-4.3 -6.75 -2.05 -4.75 0.15 -2.7 0.15 0.15 0.15 3.05 -2.05 5.05 -4.3 7.1 -7.4 7.1 -10.55 7.1 -12.75 5.05 -15.0 3.05 -15.0 0.15 -15.0 -2.7 -12.75 -4.75 -10.55 -6.75 -7.4 -6.75" fill="#330000" fill-rule="evenodd" stroke="none"/>
    <path d="M-7.4 -6.75 Q-4.3 -6.75 -2.05 -4.75 0.15 -2.7 0.15 0.15 0.15 3.05 -2.05 5.05 -4.3 7.1 -7.4 7.1 -10.55 7.1 -12.75 5.05 -15.0 3.05 -15.0 0.15 -15.0 -2.7 -12.75 -4.75 -10.55 -6.75 -7.4 -6.75 M-23.45 0.3 Q-21.15 -3.05 -16.9 -5.05 -12.5 -7.1 -7.25 -7.1 -0.1 -7.1 5.1 -3.3 8.45 -0.9 10.0 2.25 L10.95 5.05 Q21.1 6.75 23.45 3.05" fill="none" stroke="#330000" stroke-linecap="round" stroke-linejoin="round" stroke-width="2.0"/>
  </g>
</svg>
