<?xml version="1.0" encoding="UTF-8" standalone="no"?>
<svg xmlns:xlink="http://www.w3.org/1999/xlink" height="21.2px" width="29.15px" xmlns="http://www.w3.org/2000/svg">
  <g transform="matrix(1, 0, 0, 1, 14.55, 10.6)">
    <path d="M-3.5 -3.9 Q-0.35 -3.9 1.9 -2.05 4.15 -0.25 4.15 2.35 4.15 4.95 1.9 6.75 -0.35 8.6 -3.5 8.6 -6.7 8.6 -8.95 6.75 -11.2 4.95 -11.2 2.35 -11.2 -0.25 -8.95 -2.05 -6.7 -3.9 -3.5 -3.9" fill="#330000" fill-rule="evenodd" stroke="none"/>
    <path d="M-3.5 -3.9 Q-0.35 -3.9 1.9 -2.05 4.15 -0.25 4.15 2.35 4.15 4.95 1.9 6.75 -0.35 8.6 -3.5 8.6 -6.7 8.6 -8.95 6.75 -11.2 4.95 -11.2 2.35 -11.2 -0.25 -8.95 -2.05 -6.7 -3.9 -3.5 -3.9 M-13.55 -6.4 Q-8.9 -9.6 -2.6 -9.6 4.1 -9.6 8.85 -6.05 13.6 -2.5 13.6 2.55 13.6 6.45 10.55 9.6" fill="none" stroke="#330000" stroke-linecap="round" stroke-linejoin="round" stroke-width="2.0"/>
  </g>
</svg>
