<?xml version="1.0" encoding="UTF-8" standalone="no"?>
<svg xmlns:xlink="http://www.w3.org/1999/xlink" height="16.15px" width="37.0px" xmlns="http://www.w3.org/2000/svg">
  <g transform="matrix(1, 0, 0, 1, 18.5, 4.05)">
    <path d="M17.5 4.1 Q-0.5 18.1 -17.5 4.1 0.3 -10.2 17.5 4.1" fill="#ff0033" fill-rule="evenodd" stroke="none"/>
    <path d="M17.5 4.1 Q-0.5 18.1 -17.5 4.1" fill="none" stroke="#330000" stroke-linecap="round" stroke-linejoin="round" stroke-width="2.0"/>
    <path d="M-17.5 4.1 Q0.3 -10.2 17.5 4.1" fill="none" stroke="#330000" stroke-linecap="round" stroke-linejoin="round" stroke-width="2.0"/>
  </g>
</svg>
