<?xml version="1.0" encoding="UTF-8" standalone="no"?>
<svg xmlns:xlink="http://www.w3.org/1999/xlink" height="6.65px" width="37.5px" xmlns="http://www.w3.org/2000/svg">
  <g transform="matrix(1, 0, 0, 1, 18.75, 2.1)">
    <path d="M-17.75 1.9 L-14.25 3.3 Q-11.7 4.2 -8.75 1.55 -5.8 -1.1 0.0 -1.1 5.8 -1.1 8.75 1.55 11.7 4.2 14.3 3.3 L17.75 1.9" fill="none" stroke="#330000" stroke-linecap="round" stroke-linejoin="round" stroke-width="2.0"/>
  </g>
</svg>
