<?xml version="1.0" encoding="UTF-8" standalone="no"?>
<svg xmlns:xlink="http://www.w3.org/1999/xlink" height="153.8px" width="178.6px" xmlns="http://www.w3.org/2000/svg">
  <g transform="matrix(1, 0, 0, 1, 89.45, 133.75)">
    <path d="M56.45 -121.8 L57.55 -77.8 86.2 -63.75 74.65 -24.8 88.65 -11.6 66.0 19.55 66.0 -50.2 Q2.2 -103.3 -66.3 -49.65 L-66.3 19.55 -88.95 -11.6 -75.95 -23.3 -86.5 -63.75 -57.8 -77.8 -56.7 -121.8 -16.25 -107.75 -0.25 -133.25 15.95 -107.75 56.45 -121.8" fill="#330000" fill-rule="evenodd" stroke="none"/>
    <path d="M56.45 -121.8 L57.55 -77.8 86.2 -63.75 74.65 -24.8 88.65 -11.6 66.0 19.55 66.0 -50.2 Q2.2 -103.3 -66.3 -49.65 L-66.3 19.55 -88.95 -11.6 -75.95 -23.3 -86.5 -63.75 -57.8 -77.8 -56.7 -121.8 -16.25 -107.75 -0.25 -133.25 15.95 -107.75 56.45 -121.8" fill="none" stroke="#330000" stroke-linecap="round" stroke-linejoin="round" stroke-width="1.0"/>
  </g>
</svg>
