<?xml version="1.0" encoding="UTF-8" standalone="no"?>
<svg xmlns:xlink="http://www.w3.org/1999/xlink" height="155.45px" width="185.25px" xmlns="http://www.w3.org/2000/svg">
  <g transform="matrix(1, 0, 0, 1, 92.7, 108.7)">
    <path d="M45.35 -92.3 Q57.05 -81.75 61.75 -68.4 63.85 -62.35 71.8 -51.55 L86.8 -30.95 Q93.35 -21.15 91.7 -17.4 L80.45 -2.9 Q74.6 5.5 86.8 15.8 L66.65 38.05 66.65 -20.45 54.25 -41.5 41.65 -26.3 35.3 -42.65 Q25.45 -25.15 4.2 -20.45 L-4.7 -43.85 Q-20.85 -25.15 -64.85 -22.8 L-64.85 46.25 -88.45 14.65 Q-83.55 5.3 -82.4 -6.4 -81.0 -18.1 -92.2 -27.45 -79.85 -27.95 -63.45 -64.9 -52.7 -89.5 -37.0 -99.3 -22.95 -108.2 1.6 -108.2 27.55 -108.2 45.35 -92.3" fill="#330000" fill-rule="evenodd" stroke="none"/>
    <path d="M45.35 -92.3 Q27.55 -108.2 1.6 -108.2 -22.95 -108.2 -37.0 -99.3 -52.7 -89.5 -63.45 -64.9 -79.85 -27.95 -92.2 -27.45 -81.0 -18.1 -82.4 -6.4 -83.55 5.3 -88.45 14.65 L-64.85 46.25 -64.85 -22.8 Q-20.85 -25.15 -4.7 -43.85 L4.2 -20.45 Q25.45 -25.15 35.3 -42.65 L41.65 -26.3 54.25 -41.5 66.65 -20.45 66.65 38.05 86.8 15.8 Q74.6 5.5 80.45 -2.9 L91.7 -17.4 Q93.35 -21.15 86.8 -30.95 L71.8 -51.55 Q63.85 -62.35 61.75 -68.4 57.05 -81.75 45.35 -92.3" fill="none" stroke="#330000" stroke-linecap="round" stroke-linejoin="round" stroke-width="1.0"/>
  </g>
</svg>
