<?xml version="1.0" encoding="UTF-8" standalone="no"?>
<svg xmlns:xlink="http://www.w3.org/1999/xlink" height="153.6px" width="185.2px" xmlns="http://www.w3.org/2000/svg">
  <g transform="matrix(1, 0, 0, 1, 91.75, 125.25)">
    <path d="M59.25 -75.8 L92.95 -71.6 Q75.4 -55.45 75.4 -36.75 L75.4 25.05 60.65 25.05 60.65 -18.0 Q60.65 -70.45 1.45 -70.45 -60.35 -74.45 -60.35 -9.85 L-60.35 27.85 -75.1 27.85 -75.1 -40.7 Q-76.5 -56.9 -91.25 -71.6 L-63.15 -70.45 Q-64.35 -83.8 -75.1 -98.5 L-34.85 -94.55 Q-34.85 -112.1 -48.15 -122.85 9.6 -132.25 35.15 -94.55 L68.8 -97.35 59.25 -75.8" fill="#330000" fill-rule="evenodd" stroke="none"/>
    <path d="M59.25 -75.8 L92.95 -71.6 Q75.4 -55.45 75.4 -36.75 L75.4 25.05 60.65 25.05 60.65 -18.0 Q60.65 -70.45 1.45 -70.45 -60.35 -74.45 -60.35 -9.85 L-60.35 27.85 -75.1 27.85 -75.1 -40.7 Q-76.5 -56.9 -91.25 -71.6 L-63.15 -70.45 Q-64.35 -83.8 -75.1 -98.5 L-34.85 -94.55 Q-34.85 -112.1 -48.15 -122.85 9.6 -132.25 35.15 -94.55 L68.8 -97.35 59.25 -75.8" fill="none" stroke="#330000" stroke-linecap="round" stroke-linejoin="round" stroke-width="1.0"/>
  </g>
</svg>
