<?xml version="1.0" encoding="UTF-8" standalone="no"?>
<svg xmlns:xlink="http://www.w3.org/1999/xlink" height="108.35px" width="150.75px" xmlns="http://www.w3.org/2000/svg">
  <g transform="matrix(1, 0, 0, 1, 75.6, 104.4)">
    <path d="M-37.7 -63.85 Q-64.0 -63.85 -73.75 1.9 -78.75 -27.15 -54.9 -97.05 -21.75 -103.4 -0.1 -103.4 21.0 -103.4 54.15 -97.55 80.35 -28.6 72.2 2.95 60.05 -64.1 36.95 -64.1 L-1.35 -62.45 -37.7 -63.85" fill="#330000" fill-rule="evenodd" stroke="none"/>
    <path d="M-37.7 -63.85 Q-64.0 -63.85 -73.75 1.9 -78.75 -27.15 -54.9 -97.05 -21.75 -103.4 -0.1 -103.4 21.0 -103.4 54.15 -97.55 80.35 -28.6 72.2 2.95 60.05 -64.1 36.95 -64.1 L-1.35 -62.45 -37.7 -63.85" fill="none" stroke="#330000" stroke-linecap="round" stroke-linejoin="round" stroke-width="2.0"/>
  </g>
</svg>
