<?xml version="1.0" encoding="UTF-8" standalone="no"?>
<svg xmlns:xlink="http://www.w3.org/1999/xlink" height="127.15px" width="156.4px" xmlns="http://www.w3.org/2000/svg">
  <g transform="matrix(1, 0, 0, 1, 76.75, 115.55)">
    <path d="M0.75 -72.0 L-19.35 -81.35 Q-32.0 -6.5 -75.05 10.6 L-76.25 -7.4 Q-76.25 -51.9 -53.55 -83.45 -30.6 -115.05 1.45 -115.05 33.5 -115.05 56.45 -83.45 79.15 -51.9 79.15 -7.4 L78.0 11.1 Q33.75 -4.85 20.9 -81.35 L0.75 -72.0" fill="#330000" fill-rule="evenodd" stroke="none"/>
    <path d="M0.75 -72.0 L-19.35 -81.35 Q-32.0 -6.5 -75.05 10.6 L-76.25 -7.4 Q-76.25 -51.9 -53.55 -83.45 -30.6 -115.05 1.45 -115.05 33.5 -115.05 56.45 -83.45 79.15 -51.9 79.15 -7.4 L78.0 11.1 Q33.75 -4.85 20.9 -81.35 L0.75 -72.0" fill="none" stroke="#330000" stroke-linecap="round" stroke-linejoin="round" stroke-width="1.0"/>
  </g>
</svg>
