<?xml version="1.0" encoding="UTF-8" standalone="no"?>
<svg xmlns:xlink="http://www.w3.org/1999/xlink" height="167.65px" width="157.75px" xmlns="http://www.w3.org/2000/svg">
  <g transform="matrix(1, 0, 0, 1, 77.9, 117.35)">
    <path d="M29.3 -61.35 L-6.05 -36.1 -22.45 -51.3 Q-29.25 -42.45 -31.3 -34.95 L-43.95 -41.25 -63.4 -19.7 -65.7 49.3 Q-77.4 23.3 -77.4 -8.25 -77.45 -53.2 -54.5 -85.0 -31.55 -116.85 0.95 -116.85 33.5 -116.85 56.45 -85.0 79.35 -53.2 79.35 -8.25 79.35 28.7 68.6 49.8 68.6 -0.8 53.85 -30.5 47.05 -44.05 29.3 -61.35" fill="#330000" fill-rule="evenodd" stroke="none"/>
    <path d="M29.3 -61.35 L-6.05 -36.1 -22.45 -51.3 Q-29.25 -42.45 -31.3 -34.95 L-43.95 -41.25 -63.4 -19.7 -65.7 49.3 Q-77.4 23.3 -77.4 -8.25 -77.45 -53.2 -54.5 -85.0 -31.55 -116.85 0.95 -116.85 33.5 -116.85 56.45 -85.0 79.35 -53.2 79.35 -8.25 79.35 28.7 68.6 49.8 68.6 -0.8 53.85 -30.5 47.05 -44.05 29.3 -61.35" fill="none" stroke="#330000" stroke-linecap="round" stroke-linejoin="round" stroke-width="1.0"/>
  </g>
</svg>
