<?xml version="1.0" encoding="UTF-8" standalone="no"?>
<svg xmlns:xlink="http://www.w3.org/1999/xlink" height="171.6px" width="157.75px" xmlns="http://www.w3.org/2000/svg">
  <g transform="matrix(1, 0, 0, 1, 78.55, 114.45)">
    <path d="M78.7 -17.05 Q78.7 0.95 74.0 21.1 69.3 41.65 62.3 54.3 70.5 6.35 62.55 -28.75 42.9 -33.45 9.9 -74.85 L-22.85 -39.3 -24.0 -68.55 Q-39.45 -35.8 -60.5 -22.9 -69.9 12.15 -59.35 56.65 -66.4 43.55 -72.0 23.2 -78.1 1.2 -78.05 -14.7 -78.1 -55.45 -53.75 -85.15 -30.1 -113.95 0.55 -113.95 31.4 -113.95 54.6 -86.35 78.7 -57.8 78.7 -17.05" fill="#330000" fill-rule="evenodd" stroke="none"/>
    <path d="M78.7 -17.05 Q78.7 0.95 74.0 21.1 69.3 41.65 62.3 54.3 70.5 6.35 62.55 -28.75 42.9 -33.45 9.9 -74.85 L-22.85 -39.3 -24.0 -68.55 Q-39.45 -35.8 -60.5 -22.9 -69.9 12.15 -59.35 56.65 -66.4 43.55 -72.0 23.2 -78.1 1.2 -78.05 -14.7 -78.1 -55.45 -53.75 -85.15 -30.1 -113.95 0.55 -113.95 31.4 -113.95 54.6 -86.35 78.7 -57.8 78.7 -17.05" fill="none" stroke="#330000" stroke-linecap="round" stroke-linejoin="round" stroke-width="1.0"/>
  </g>
</svg>
