<?xml version="1.0" encoding="UTF-8" standalone="no"?>
<svg xmlns:xlink="http://www.w3.org/1999/xlink" height="245.25px" width="181.9px" xmlns="http://www.w3.org/2000/svg">
  <g transform="matrix(1, 0, 0, 1, 87.95, 121.8)">
    <path d="M-80.7 -88.8 L-78.2 -71.05 -73.7 -79.3 -69.45 -69.05 -64.95 -79.3 -60.95 -71.05 -58.2 -88.8 -80.7 -88.8" fill="#003399" fill-rule="evenodd" stroke="none"/>
    <path d="M-85.15 -97.3 Q-85.15 -88.4 -80.6 -82.1 -76.05 -75.8 -69.65 -75.8 -63.2 -75.8 -58.65 -82.1 -54.15 -88.35 -54.15 -97.3 -54.15 -106.2 -58.65 -112.5 -63.2 -118.8 -69.65 -118.8 -76.05 -118.8 -80.6 -112.5 -85.15 -106.2 -85.15 -97.3" fill="#ffffff" fill-rule="evenodd" stroke="none"/>
    <path d="M-85.15 -97.3 Q-85.15 -106.2 -80.6 -112.5 -76.05 -118.8 -69.65 -118.8 -63.2 -118.8 -58.65 -112.5 -54.15 -106.2 -54.15 -97.3 -54.15 -88.35 -58.65 -82.1 -63.2 -75.8 -69.65 -75.8 -76.05 -75.8 -80.6 -82.1 -85.15 -88.4 -85.15 -97.3" fill="none" stroke="#9999ff" stroke-linecap="round" stroke-linejoin="round" stroke-width="2.0"/>
    <path d="M-85.85 -101.65 Q-85.85 -92.3 -81.95 -85.15 -82.9 -92.8 -82.9 -98.95 -82.9 -106.8 -81.1 -110.05 L-79.1 -99.05 -76.9 -112.2 -74.6 -100.65 -72.15 -113.25 -69.65 -101.2 -67.1 -113.25 -64.65 -100.65 -62.35 -112.15 -60.15 -99.05 -58.15 -110.05 Q-56.35 -105.8 -56.35 -98.95 L-56.5 -85.15 Q-53.4 -91.8 -53.4 -101.65 -53.4 -110.35 -57.95 -115.85 -62.5 -121.3 -69.65 -121.3 -76.8 -121.3 -81.3 -115.85 -85.85 -110.35 -85.85 -101.65" fill="#003399" fill-rule="evenodd" stroke="none"/>
    <path d="M-85.85 -101.65 Q-85.85 -110.35 -81.3 -115.85 -76.8 -121.3 -69.65 -121.3 -62.5 -121.3 -57.95 -115.85 -53.4 -110.35 -53.4 -101.65 -53.4 -91.8 -56.5 -85.15 L-56.35 -98.95 Q-56.35 -105.8 -58.15 -110.05 L-60.15 -99.05 -62.35 -112.15 -64.65 -100.65 -67.1 -113.25 -69.65 -101.2 -72.15 -113.25 -74.6 -100.65 -76.9 -112.2 -79.1 -99.05 -81.1 -110.05 Q-82.9 -106.8 -82.9 -98.95 -82.9 -92.8 -81.95 -85.15 -85.85 -92.3 -85.85 -101.65" fill="none" stroke="#003399" stroke-linecap="round" stroke-linejoin="round" stroke-width="1.0"/>
    <path d="M-13.95 -94.3 Q-13.95 -85.35 -9.4 -79.1 -4.9 -72.8 1.55 -72.8 7.95 -72.8 12.5 -79.1 17.05 -85.4 17.05 -94.3 17.05 -103.2 12.5 -109.5 7.95 -115.8 1.55 -115.8 -4.9 -115.8 -9.4 -109.5 -13.95 -103.2 -13.95 -94.3" fill="#ffffff" fill-rule="evenodd" stroke="none"/>
    <path d="M-13.95 -94.3 Q-13.95 -103.2 -9.4 -109.5 -4.9 -115.8 1.55 -115.8 7.95 -115.8 12.5 -109.5 17.05 -103.2 17.05 -94.3 17.05 -85.4 12.5 -79.1 7.95 -72.8 1.55 -72.8 -4.9 -72.8 -9.4 -79.1 -13.95 -85.35 -13.95 -94.3" fill="none" stroke="#9999ff" stroke-linecap="round" stroke-linejoin="round" stroke-width="2.0"/>
    <path d="M-14.9 -88.7 L-12.4 -87.7 -12.4 -102.85 Q-12.25 -104.85 -10.65 -106.9 L-9.0 -104.1 -6.4 -110.05 -3.4 -106.15 -1.8 -111.25 Q-1.45 -111.3 1.4 -107.15 4.45 -111.3 4.85 -111.25 L6.45 -106.15 9.4 -110.05 9.6 -109.95 12.05 -104.1 13.65 -106.85 Q15.25 -104.8 15.4 -102.85 L15.4 -87.7 17.95 -88.7 17.95 -102.6 Q17.95 -112.25 10.85 -116.0 6.95 -118.0 1.5 -118.0 -4.1 -118.0 -7.9 -116.0 -14.9 -112.3 -14.9 -102.6 L-14.9 -88.7" fill="#003399" fill-rule="evenodd" stroke="none"/>
    <path d="M-14.9 -88.7 L-14.9 -102.6 Q-14.9 -112.3 -7.9 -116.0 -4.1 -118.0 1.5 -118.0 6.95 -118.0 10.85 -116.0 17.95 -112.25 17.95 -102.6 L17.95 -88.7 15.4 -87.7 15.4 -102.85 Q15.25 -104.8 13.65 -106.85 L12.05 -104.1 9.6 -109.95 9.4 -110.05 6.45 -106.15 4.85 -111.25 Q4.45 -111.3 1.4 -107.15 -1.45 -111.3 -1.8 -111.25 L-3.4 -106.15 -6.4 -110.05 -9.0 -104.1 -10.65 -106.9 Q-12.25 -104.85 -12.4 -102.85 L-12.4 -87.7 -14.9 -88.7" fill="none" stroke="#003399" stroke-linecap="round" stroke-linejoin="round" stroke-width="1.0"/>
    <path d="M58.3 -97.3 Q58.3 -88.4 62.85 -82.1 67.4 -75.8 73.8 -75.8 80.2 -75.8 84.75 -82.1 89.3 -88.4 89.3 -97.3 89.3 -106.2 84.75 -112.5 80.2 -118.8 73.8 -118.8 67.4 -118.8 62.85 -112.5 58.3 -106.2 58.3 -97.3" fill="#ffffff" fill-rule="evenodd" stroke="none"/>
    <path d="M58.3 -97.3 Q58.3 -106.2 62.85 -112.5 67.4 -118.8 73.8 -118.8 80.2 -118.8 84.75 -112.5 89.3 -106.2 89.3 -97.3 89.3 -88.4 84.75 -82.1 80.2 -75.8 73.8 -75.8 67.4 -75.8 62.85 -82.1 58.3 -88.4 58.3 -97.3" fill="none" stroke="#9999ff" stroke-linecap="round" stroke-linejoin="round" stroke-width="2.0"/>
    <path d="M56.55 -100.05 Q56.55 -94.45 59.05 -89.85 63.05 -96.0 63.05 -101.3 L66.8 -97.55 69.8 -101.55 74.05 -97.55 76.8 -101.8 80.8 -97.3 83.3 -101.8 Q84.45 -94.45 88.45 -89.35 91.3 -94.2 91.3 -100.05 91.3 -108.1 86.2 -113.85 81.1 -119.55 73.9 -119.55 66.7 -119.55 61.65 -113.85 56.55 -108.1 56.55 -100.05" fill="#003399" fill-rule="evenodd" stroke="none"/>
    <path d="M56.55 -100.05 Q56.55 -108.1 61.65 -113.85 66.7 -119.55 73.9 -119.55 81.1 -119.55 86.2 -113.85 91.3 -108.1 91.3 -100.05 91.3 -94.2 88.45 -89.35 84.45 -94.45 83.3 -101.8 L80.8 -97.3 76.8 -101.8 74.05 -97.55 69.8 -101.55 66.8 -97.55 63.05 -101.3 Q63.05 -96.0 59.05 -89.85 56.55 -94.45 56.55 -100.05" fill="none" stroke="#003399" stroke-linecap="round" stroke-linejoin="round" stroke-width="1.0"/>
    <path d="M-13.95 -32.3 Q-13.95 -23.35 -9.4 -17.1 -4.9 -10.8 1.55 -10.8 7.95 -10.8 12.5 -17.1 17.05 -23.4 17.05 -32.3 17.05 -41.2 12.5 -47.5 7.95 -53.8 1.55 -53.8 -4.9 -53.8 -9.4 -47.5 -13.95 -41.2 -13.95 -32.3" fill="#ffffff" fill-rule="evenodd" stroke="none"/>
    <path d="M-13.95 -32.3 Q-13.95 -41.2 -9.4 -47.5 -4.9 -53.8 1.55 -53.8 7.95 -53.8 12.5 -47.5 17.05 -41.2 17.05 -32.3 17.05 -23.4 12.5 -17.1 7.95 -10.8 1.55 -10.8 -4.9 -10.8 -9.4 -17.1 -13.95 -23.35 -13.95 -32.3" fill="none" stroke="#9999ff" stroke-linecap="round" stroke-linejoin="round" stroke-width="2.0"/>
    <path d="M-14.45 -40.85 Q-14.45 -30.35 -13.9 -26.7 L-12.5 -33.2 -10.15 -31.95 -9.75 -37.45 -7.15 -35.15 -0.45 -49.2 2.05 -46.95 4.5 -49.2 11.25 -35.15 13.8 -37.45 14.2 -31.95 16.6 -33.2 17.75 -27.75 Q18.3 -32.55 18.3 -40.85 18.3 -46.9 13.55 -51.15 8.8 -55.45 2.05 -55.45 -4.75 -55.45 -9.6 -51.15 -14.45 -46.9 -14.45 -40.85" fill="#003399" fill-rule="evenodd" stroke="none"/>
    <path d="M-14.45 -40.85 Q-14.45 -46.9 -9.6 -51.15 -4.75 -55.45 2.05 -55.45 8.8 -55.45 13.55 -51.15 18.3 -46.9 18.3 -40.85 18.3 -32.55 17.75 -27.75 L16.6 -33.2 14.2 -31.95 13.8 -37.45 11.25 -35.15 4.5 -49.2 2.05 -46.95 -0.45 -49.2 -7.15 -35.15 -9.75 -37.45 -10.15 -31.95 -12.5 -33.2 -13.9 -26.7 Q-14.45 -30.35 -14.45 -40.85" fill="none" stroke="#003399" stroke-linecap="round" stroke-linejoin="round" stroke-width="1.0"/>
    <path d="M83.5 -17.1 Q88.05 -23.4 88.05 -32.3 88.05 -41.2 83.5 -47.5 78.95 -53.8 72.55 -53.8 66.1 -53.8 61.6 -47.5 57.05 -41.2 57.05 -32.3 57.05 -23.35 61.6 -17.1 66.1 -10.8 72.55 -10.8 78.95 -10.8 83.5 -17.1" fill="#ffffff" fill-rule="evenodd" stroke="none"/>
    <path d="M83.5 -17.1 Q78.95 -10.8 72.55 -10.8 66.1 -10.8 61.6 -17.1 57.05 -23.35 57.05 -32.3 57.05 -41.2 61.6 -47.5 66.1 -53.8 72.55 -53.8 78.95 -53.8 83.5 -47.5 88.05 -41.2 88.05 -32.3 88.05 -23.4 83.5 -17.1" fill="none" stroke="#9999ff" stroke-linecap="round" stroke-linejoin="round" stroke-width="2.0"/>
    <path d="M87.25 -28.1 L88.15 -34.15 Q88.8 -38.5 88.8 -40.95 88.8 -46.9 84.1 -51.05 79.4 -55.25 72.7 -55.25 65.95 -55.25 61.15 -51.05 56.35 -46.85 56.35 -40.95 56.35 -37.2 57.9 -27.1 L60.05 -38.6 66.4 -38.6 69.85 -48.65 72.3 -46.4 74.75 -48.65 78.75 -38.6 84.95 -38.6 87.25 -28.1" fill="#003399" fill-rule="evenodd" stroke="none"/>
    <path d="M87.25 -28.1 L84.95 -38.6 78.75 -38.6 74.75 -48.65 72.3 -46.4 69.85 -48.65 66.4 -38.6 60.05 -38.6 57.9 -27.1 Q56.35 -37.2 56.35 -40.95 56.35 -46.85 61.15 -51.05 65.95 -55.25 72.7 -55.25 79.4 -55.25 84.1 -51.05 88.8 -46.9 88.8 -40.95 88.8 -38.5 88.15 -34.15 L87.25 -28.1" fill="none" stroke="#003399" stroke-linecap="round" stroke-linejoin="round" stroke-width="1.0"/>
    <path d="M-85.45 39.7 Q-86.45 57.2 -69.45 57.2 -52.95 58.2 -52.95 39.45 L-85.45 39.7" fill="#003399" fill-rule="evenodd" stroke="none"/>
    <path d="M-84.95 30.7 Q-84.95 39.65 -80.4 45.9 -75.9 52.2 -69.45 52.2 -63.05 52.2 -58.5 45.9 -53.95 39.6 -53.95 30.7 -53.95 21.8 -58.5 15.5 -63.05 9.2 -69.45 9.2 -75.9 9.2 -80.4 15.5 -84.95 21.8 -84.95 30.7" fill="#ffffff" fill-rule="evenodd" stroke="none"/>
    <path d="M-84.95 30.7 Q-84.95 21.8 -80.4 15.5 -75.9 9.2 -69.45 9.2 -63.05 9.2 -58.5 15.5 -53.95 21.8 -53.95 30.7 -53.95 39.6 -58.5 45.9 -63.05 52.2 -69.45 52.2 -75.9 52.2 -80.4 45.9 -84.95 39.65 -84.95 30.7" fill="none" stroke="#9999ff" stroke-linecap="round" stroke-linejoin="round" stroke-width="2.0"/>
    <path d="M-56.75 30.45 Q-56.75 43.95 -52.0 40.95 -50.5 25.95 -54.25 18.2 -57.25 12.05 -60.45 9.35 -64.05 6.25 -69.25 6.2 -74.45 6.25 -78.05 9.35 -81.25 12.05 -84.2 18.2 -87.95 25.95 -86.45 40.95 -81.7 43.95 -81.7 30.45 -81.7 14.2 -72.2 10.95 L-66.25 10.95 Q-56.75 14.2 -56.75 30.45" fill="#003399" fill-rule="evenodd" stroke="none"/>
    <path d="M-56.75 30.45 Q-56.75 14.2 -66.25 10.95 L-72.2 10.95 Q-81.7 14.2 -81.7 30.45 -81.7 43.95 -86.45 40.95 -87.95 25.95 -84.2 18.2 -81.25 12.05 -78.05 9.35 -74.45 6.25 -69.25 6.2 -64.05 6.25 -60.45 9.35 -57.25 12.05 -54.25 18.2 -50.5 25.95 -52.0 40.95 -56.75 43.95 -56.75 30.45" fill="none" stroke="#003399" stroke-linecap="round" stroke-linejoin="round" stroke-width="1.0"/>
    <path d="M13.8 56.45 L13.05 40.7 -9.2 40.45 -10.2 56.45 1.55 50.45 13.8 56.45" fill="#003399" fill-rule="evenodd" stroke="none"/>
    <path d="M-13.95 31.7 Q-13.95 40.65 -9.4 46.9 -4.9 53.2 1.55 53.2 7.95 53.2 12.5 46.9 17.05 40.6 17.05 31.7 17.05 22.8 12.5 16.5 7.95 10.2 1.55 10.2 -4.9 10.2 -9.4 16.5 -13.95 22.8 -13.95 31.7" fill="#ffffff" fill-rule="evenodd" stroke="none"/>
    <path d="M-13.95 31.7 Q-13.95 22.8 -9.4 16.5 -4.9 10.2 1.55 10.2 7.95 10.2 12.5 16.5 17.05 22.8 17.05 31.7 17.05 40.6 12.5 46.9 7.95 53.2 1.55 53.2 -4.9 53.2 -9.4 46.9 -13.95 40.65 -13.95 31.7" fill="none" stroke="#9999ff" stroke-linecap="round" stroke-linejoin="round" stroke-width="2.0"/>
    <path d="M-13.9 21.1 Q-13.9 25.55 -19.6 31.0 -10.85 30.3 -5.1 26.7 1.55 22.5 1.65 15.7 1.75 22.75 7.95 26.75 13.85 30.5 23.4 30.5 17.2 28.5 17.2 21.1 17.2 15.15 12.65 10.95 8.05 6.75 1.65 6.75 -4.8 6.75 -9.35 10.95 -13.9 15.15 -13.9 21.1" fill="#003399" fill-rule="evenodd" stroke="none"/>
    <path d="M-13.9 21.1 Q-13.9 15.15 -9.35 10.95 -4.8 6.75 1.65 6.75 8.05 6.75 12.65 10.95 17.2 15.15 17.2 21.1 17.2 28.5 23.4 30.5 13.85 30.5 7.95 26.75 1.75 22.75 1.65 15.7 1.55 22.5 -5.1 26.7 -10.85 30.3 -19.6 31.0 -13.9 25.55 -13.9 21.1" fill="none" stroke="#003399" stroke-linecap="round" stroke-linejoin="round" stroke-width="1.0"/>
    <path d="M83.5 47.9 Q88.05 41.6 88.05 32.7 88.05 23.8 83.5 17.5 78.95 11.2 72.55 11.2 66.1 11.2 61.6 17.5 57.05 23.8 57.05 32.7 57.05 41.65 61.6 47.9 66.1 54.2 72.55 54.2 78.95 54.2 83.5 47.9" fill="#ffffff" fill-rule="evenodd" stroke="none"/>
    <path d="M83.5 47.9 Q78.95 54.2 72.55 54.2 66.1 54.2 61.6 47.9 57.05 41.65 57.05 32.7 57.05 23.8 61.6 17.5 66.1 11.2 72.55 11.2 78.95 11.2 83.5 17.5 88.05 23.8 88.05 32.7 88.05 41.6 83.5 47.9" fill="none" stroke="#9999ff" stroke-linecap="round" stroke-linejoin="round" stroke-width="2.0"/>
    <path d="M56.9 34.4 Q57.15 28.75 61.1 25.35 64.2 22.9 71.8 22.9 79.35 22.9 83.0 20.65 L85.2 26.8 86.9 30.15 Q87.9 31.95 88.05 34.15 L88.05 22.7 Q90.05 9.2 72.05 9.2 56.55 9.2 56.9 23.8 L56.9 34.4" fill="#003399" fill-rule="evenodd" stroke="none"/>
    <path d="M56.9 34.4 Q57.15 28.75 61.1 25.35 64.2 22.9 71.8 22.9 79.35 22.9 83.0 20.65 L85.2 26.8 86.9 30.15 Q87.9 31.95 88.05 34.15 L88.05 22.7 Q90.05 9.2 72.05 9.2 56.55 9.2 56.9 23.8 L56.9 34.4 56.9 36.05" fill="none" stroke="#003399" stroke-linecap="round" stroke-linejoin="round" stroke-width="1.0"/>
    <path d="M-53.7 102.95 Q-62.75 93.2 -85.2 99.95 L-79.2 122.45 -74.95 115.95 -72.45 122.95 -68.7 116.2 -66.2 122.95 -63.7 115.7 -59.7 122.95 -53.7 102.95" fill="#003399" fill-rule="evenodd" stroke="none"/>
    <path d="M-53.7 102.95 Q-62.75 93.2 -85.2 99.95 L-79.2 122.45 -74.95 115.95 -72.45 122.95 -68.7 116.2 -66.2 122.95 -63.7 115.7 -59.7 122.95 -53.7 102.95" fill="none" stroke="#003399" stroke-linecap="round" stroke-linejoin="round" stroke-width="1.0"/>
    <path d="M-80.4 111.4 Q-75.9 117.7 -69.45 117.7 -63.05 117.7 -58.5 111.4 -53.95 105.1 -53.95 96.2 -53.95 87.3 -58.5 81.0 -63.05 74.7 -69.45 74.7 -75.9 74.7 -80.4 81.0 -84.95 87.3 -84.95 96.2 -84.95 105.15 -80.4 111.4" fill="#ffffff" fill-rule="evenodd" stroke="none"/>
    <path d="M-80.4 111.4 Q-84.95 105.15 -84.95 96.2 -84.95 87.3 -80.4 81.0 -75.9 74.7 -69.45 74.7 -63.05 74.7 -58.5 81.0 -53.95 87.3 -53.95 96.2 -53.95 105.1 -58.5 111.4 -63.05 117.7 -69.45 117.7 -75.9 117.7 -80.4 111.4" fill="none" stroke="#9999ff" stroke-linecap="round" stroke-linejoin="round" stroke-width="2.0"/>
    <path d="M-64.7 82.45 Q-61.1 92.15 -57.2 91.2 -57.45 97.7 -55.45 103.95 L-51.2 97.2 -54.45 90.95 -51.2 85.2 -56.95 80.7 -55.95 74.95 -61.45 76.2 -62.45 70.95 -66.7 72.95 -69.7 68.95 -72.2 73.45 -76.7 72.2 -77.45 76.2 -82.2 76.45 -81.7 80.95 -86.95 85.7 -84.95 92.2 -87.45 97.2 -83.2 103.2 Q-81.7 100.2 -81.45 89.45 L-77.95 90.7 -75.7 85.7 -74.45 89.45 Q-68.45 89.7 -64.7 82.45" fill="#003399" fill-rule="evenodd" stroke="none"/>
    <path d="M-64.7 82.45 Q-68.45 89.7 -74.45 89.45 L-75.7 85.7 -77.95 90.7 -81.45 89.45 Q-81.7 100.2 -83.2 103.2 L-87.45 97.2 -84.95 92.2 -86.95 85.7 -81.7 80.95 -82.2 76.45 -77.45 76.2 -76.7 72.2 -72.2 73.45 -69.7 68.95 -66.7 72.95 -62.45 70.95 -61.45 76.2 -55.95 74.95 -56.95 80.7 -51.2 85.2 -54.45 90.95 -51.2 97.2 -55.45 103.95 Q-57.45 97.7 -57.2 91.2 -61.1 92.15 -64.7 82.45" fill="none" stroke="#003399" stroke-linecap="round" stroke-linejoin="round" stroke-width="1.0"/>
    <path d="M16.55 103.95 L-12.2 103.95 -7.7 122.2 -2.95 116.2 1.8 122.2 6.3 116.2 11.05 122.2 16.55 103.95" fill="#003399" fill-rule="evenodd" stroke="none"/>
    <path d="M16.55 103.95 L-12.2 103.95 -7.7 122.2 -2.95 116.2 1.8 122.2 6.3 116.2 11.05 122.2 16.55 103.95" fill="none" stroke="#003399" stroke-linecap="round" stroke-linejoin="round" stroke-width="1.0"/>
    <path d="M1.55 115.7 Q7.95 115.7 12.5 109.4 17.05 103.1 17.05 94.2 17.05 85.3 12.5 79.0 7.95 72.7 1.55 72.7 -4.9 72.7 -9.4 79.0 -13.95 85.3 -13.95 94.2 -13.95 103.15 -9.4 109.4 -4.9 115.7 1.55 115.7" fill="#ffffff" fill-rule="evenodd" stroke="none"/>
    <path d="M1.55 115.7 Q-4.9 115.7 -9.4 109.4 -13.95 103.15 -13.95 94.2 -13.95 85.3 -9.4 79.0 -4.9 72.7 1.55 72.7 7.95 72.7 12.5 79.0 17.05 85.3 17.05 94.2 17.05 103.1 12.5 109.4 7.95 115.7 1.55 115.7" fill="none" stroke="#9999ff" stroke-linecap="round" stroke-linejoin="round" stroke-width="2.0"/>
    <path d="M18.55 105.7 L18.55 89.95 Q17.05 71.95 2.05 71.95 -12.95 71.95 -13.7 91.95 L-13.7 105.7 -10.95 105.7 -9.95 93.2 -7.65 92.7 Q-7.0 92.25 -6.5 91.05 L-5.45 88.15 -3.45 83.7 -2.2 92.7 Q5.8 86.45 6.3 83.2 L11.8 93.2 14.3 92.95 16.05 105.7 18.55 105.7" fill="#003399" fill-rule="evenodd" stroke="none"/>
    <path d="M18.55 105.7 L18.55 89.95 Q17.05 71.95 2.05 71.95 -12.95 71.95 -13.7 91.95 L-13.7 105.7 -10.95 105.7 -9.95 93.2 -7.65 92.7 Q-7.0 92.25 -6.5 91.05 L-5.45 88.15 -3.45 83.7 -2.2 92.7 Q5.8 86.45 6.3 83.2 L11.8 93.2 14.3 92.95 16.05 105.7 18.55 105.7" fill="none" stroke="#003399" stroke-linecap="round" stroke-linejoin="round" stroke-width="1.0"/>
    <path d="M62.6 82.5 Q58.05 88.8 58.05 97.7 58.05 106.65 62.6 112.9 67.1 119.2 73.55 119.2 79.95 119.2 84.5 112.9 89.05 106.6 89.05 97.7 89.05 88.8 84.5 82.5 79.95 76.2 73.55 76.2 67.1 76.2 62.6 82.5" fill="#ffffff" fill-rule="evenodd" stroke="none"/>
    <path d="M62.6 82.5 Q67.1 76.2 73.55 76.2 79.95 76.2 84.5 82.5 89.05 88.8 89.05 97.7 89.05 106.6 84.5 112.9 79.95 119.2 73.55 119.2 67.1 119.2 62.6 112.9 58.05 106.65 58.05 97.7 58.05 88.8 62.6 82.5" fill="none" stroke="#9999ff" stroke-linecap="round" stroke-linejoin="round" stroke-width="2.0"/>
    <path d="M59.95 106.95 L59.95 92.2 Q69.35 91.7 72.8 87.7 L74.7 92.7 Q79.25 91.7 81.35 87.95 L82.7 91.45 85.4 88.2 88.05 92.7 88.05 105.2 92.35 100.45 Q89.75 98.25 91.0 96.45 L93.4 93.35 Q93.75 92.55 92.35 90.45 L89.15 86.05 Q87.45 83.75 87.0 82.45 86.0 79.6 83.5 77.35 79.7 73.95 74.15 73.95 68.9 73.95 65.9 75.85 62.55 77.95 60.25 83.2 56.75 91.1 54.1 91.2 56.5 93.2 56.2 95.7 55.95 98.2 54.9 100.2 L59.95 106.95" fill="#003399" fill-rule="evenodd" stroke="none"/>
    <path d="M59.95 106.95 L59.95 92.2 Q69.35 91.7 72.8 87.7 L74.7 92.7 Q79.25 91.7 81.35 87.95 L82.7 91.45 85.4 88.2 88.05 92.7 88.05 105.2 92.35 100.45 Q89.75 98.25 91.0 96.45 L93.4 93.35 Q93.75 92.55 92.35 90.45 L89.15 86.05 Q87.45 83.75 87.0 82.45 86.0 79.6 83.5 77.35 79.7 73.95 74.15 73.95 68.9 73.95 65.9 75.85 62.55 77.95 60.25 83.2 56.75 91.1 54.1 91.2 56.5 93.2 56.2 95.7 55.95 98.2 54.9 100.2 L59.95 106.95" fill="none" stroke="#003399" stroke-linecap="round" stroke-linejoin="round" stroke-width="1.0"/>
    <path d="M-84.95 -32.3 Q-84.95 -23.35 -80.4 -17.1 -75.9 -10.8 -69.45 -10.8 -63.05 -10.8 -58.5 -17.1 -53.95 -23.4 -53.95 -32.3 -53.95 -41.2 -58.5 -47.5 -63.05 -53.8 -69.45 -53.8 -75.9 -53.8 -80.4 -47.5 -84.95 -41.2 -84.95 -32.3" fill="#ffffff" fill-rule="evenodd" stroke="none"/>
    <path d="M-84.95 -32.3 Q-84.95 -41.2 -80.4 -47.5 -75.9 -53.8 -69.45 -53.8 -63.05 -53.8 -58.5 -47.5 -53.95 -41.2 -53.95 -32.3 -53.95 -23.4 -58.5 -17.1 -63.05 -10.8 -69.45 -10.8 -75.9 -10.8 -80.4 -17.1 -84.95 -23.35 -84.95 -32.3" fill="none" stroke="#9999ff" stroke-linecap="round" stroke-linejoin="round" stroke-width="2.0"/>
    <path d="M-86.35 -40.05 Q-86.35 -33.0 -85.9 -28.8 -73.2 -32.15 -65.6 -46.05 -64.85 -42.55 -61.55 -37.6 -57.9 -32.1 -53.45 -28.8 -52.75 -33.0 -52.75 -40.05 -52.75 -46.4 -57.7 -50.9 -62.6 -55.4 -69.55 -55.4 -76.5 -55.4 -81.45 -50.9 -86.35 -46.45 -86.35 -40.05" fill="#003399" fill-rule="evenodd" stroke="none"/>
    <path d="M-86.35 -40.05 Q-86.35 -46.45 -81.45 -50.9 -76.5 -55.4 -69.55 -55.4 -62.6 -55.4 -57.7 -50.9 -52.75 -46.4 -52.75 -40.05 -52.75 -33.0 -53.45 -28.8 -57.9 -32.1 -61.55 -37.6 -64.85 -42.55 -65.6 -46.05 -73.2 -32.15 -85.9 -28.8 -86.35 -33.0 -86.35 -40.05" fill="none" stroke="#003399" stroke-linecap="round" stroke-linejoin="round" stroke-width="1.0"/>
  </g>
</svg>
