<?xml version="1.0" encoding="UTF-8" standalone="no"?>
<svg xmlns:xlink="http://www.w3.org/1999/xlink" height="213.25px" width="183.95px" xmlns="http://www.w3.org/2000/svg">
  <g transform="matrix(1, 0, 0, 1, 91.15, 105.9)">
    <path d="M20.35 88.55 L19.3 91.85 Q17.4 96.1 14.3 99.4 10.95 103.05 6.45 104.75 2.3 106.2 -2.1 105.7 -6.3 105.2 -9.85 102.9 -13.85 100.45 -16.6 96.45 -19.15 92.7 -20.25 88.55 -0.45 93.0 20.35 88.55 M8.6 103.05 L8.55 91.3 8.6 103.05 M-63.75 -35.45 L-62.5 -28.95 Q-70.6 -25.15 -79.6 -28.8 L-79.65 -28.8 -79.65 -28.9 -78.55 -35.35 Q-71.05 -34.05 -63.75 -35.45 M-0.45 105.3 L-0.45 91.3 -0.45 105.3 M-9.7 102.05 L-9.7 91.3 -9.7 102.05" fill="#ffffff" fill-rule="evenodd" stroke="none"/>
    <path d="M-14.3 -32.7 Q-14.15 -30.95 -14.3 -29.2 L-14.5 -29.2 -14.5 -32.7 -14.3 -32.7 M82.25 -27.75 Q81.7 -23.5 79.2 -20.25 76.75 -17.0 71.5 -17.0 66.35 -17.0 63.9 -20.25 61.4 -23.55 60.85 -27.8 65.65 -31.35 71.5 -27.7 77.4 -31.4 82.25 -27.75 M10.1 30.8 L-0.05 31.5 -10.3 30.9 Q-14.1 30.3 -14.05 28.15 -14.0 26.0 -10.25 24.05 -6.55 22.05 -0.05 22.05 6.45 22.05 10.05 23.9 13.65 25.7 13.7 27.9 13.75 30.1 10.1 30.8 M10.0 42.6 Q6.25 44.55 -0.25 44.55 -6.75 44.55 -10.35 42.75 -13.95 40.9 -14.0 38.7 -14.05 36.5 -10.4 35.8 L-0.25 35.1 10.05 35.7 Q13.8 36.3 13.75 38.45 13.7 40.6 10.0 42.6" fill="#ff0033" fill-rule="evenodd" stroke="none"/>
    <path d="M82.25 -27.75 Q77.4 -31.4 71.5 -27.7 65.65 -31.35 60.85 -27.8 L60.8 -28.5 Q60.35 -33.45 63.25 -37.35 66.85 -42.15 71.55 -38.25 76.25 -42.15 79.85 -37.35 82.75 -33.45 82.35 -28.5 L82.25 -27.75" fill="#660000" fill-rule="evenodd" stroke="none"/>
    <path d="M77.5 -102.25 Q79.75 -99.05 79.75 -94.55 79.75 -90.05 77.55 -88.6 75.3 -87.2 72.15 -87.2 69.0 -87.2 66.8 -88.6 64.55 -90.05 64.55 -94.55 64.55 -99.05 66.75 -102.25 69.0 -105.4 72.15 -105.4 75.3 -105.4 77.5 -102.25 M-14.3 -32.7 L15.3 -32.7 15.3 -29.2 -14.3 -29.2 Q-14.15 -30.95 -14.3 -32.7 M-63.75 -35.45 Q-59.8 -36.2 -55.9 -37.75 L-52.8 -31.55 Q-72.2 -16.0 -89.65 -31.6 L-86.5 -37.45 Q-82.5 -36.05 -78.55 -35.35 L-79.65 -28.9 -79.65 -28.8 -79.6 -28.8 Q-70.6 -25.15 -62.5 -28.95 L-63.75 -35.45" fill="#003366" fill-rule="evenodd" stroke="none"/>
    <path d="M77.5 -102.25 Q79.75 -99.05 79.75 -94.55 79.75 -90.05 77.55 -88.6 75.3 -87.2 72.15 -87.2 69.0 -87.2 66.8 -88.6 64.55 -90.05 64.55 -94.55 64.55 -99.05 66.75 -102.25 69.0 -105.4 72.15 -105.4 75.3 -105.4 77.5 -102.25" fill="none" stroke="#003366" stroke-linecap="round" stroke-linejoin="round" stroke-width="1.0"/>
    <path d="M17.5 -22.45 Q13.55 -30.95 17.5 -39.45 M-14.3 -32.7 Q-14.15 -30.95 -14.3 -29.2 -14.65 -25.8 -16.2 -22.45 M87.8 30.3 Q87.9 36.4 84.3 39.05 M20.35 88.55 Q-0.45 93.0 -20.25 88.55 -19.15 92.7 -16.6 96.45 -13.85 100.45 -9.85 102.9 -6.3 105.2 -2.1 105.7 2.3 106.2 6.45 104.75 10.95 103.05 14.3 99.4 17.4 96.1 19.3 91.85 L20.35 88.55 M59.05 30.3 L87.05 30.3 M52.55 99.3 Q61.65 100.2 67.15 93.65 L74.55 100.05 82.45 93.9 91.3 99.55 M-88.1 -95.55 L-87.45 -95.8 Q-86.8 -96.1 -86.1 -96.35 L-83.35 -97.4 -77.5 -99.6 Q-74.05 -100.9 -69.85 -97.7 -65.65 -100.9 -62.15 -99.6 L-56.3 -97.4 -52.5 -95.9 -51.6 -95.55 M-78.55 -35.35 Q-82.5 -36.05 -86.5 -37.45 L-89.65 -31.6 Q-72.2 -16.0 -52.8 -31.55 L-55.9 -37.75 Q-59.8 -36.2 -63.75 -35.45 M-78.55 -35.35 Q-71.05 -34.05 -63.75 -35.45 M-14.3 -32.7 Q-14.65 -36.05 -16.2 -39.45 M-17.2 -99.95 Q-6.0 -97.65 -0.2 -89.95 5.6 -97.65 16.8 -99.95 M-83.5 35.8 L-71.5 35.8 Q-58.4 36.4 -54.25 27.55 M-56.0 101.25 Q-65.55 98.65 -70.75 91.75 -75.7 98.3 -84.5 100.95" fill="none" stroke="#003366" stroke-linecap="round" stroke-linejoin="round" stroke-width="3.0"/>
    <path d="M-14.3 -29.2 L15.3 -29.2 15.3 -32.7 -14.3 -32.7 M82.25 -27.75 Q77.4 -31.4 71.5 -27.7 65.65 -31.35 60.85 -27.8 M-63.75 -35.45 L-62.5 -28.95 Q-70.6 -25.15 -79.6 -28.8 M-79.65 -28.8 L-79.65 -28.9 -78.55 -35.35" fill="none" stroke="#003366" stroke-linecap="round" stroke-linejoin="round" stroke-width="1.0"/>
    <path d="M60.85 -27.8 Q61.4 -23.55 63.9 -20.25 66.35 -17.0 71.5 -17.0 76.75 -17.0 79.2 -20.25 81.7 -23.5 82.25 -27.75 M60.85 -27.8 L60.8 -28.5 Q60.35 -33.45 63.25 -37.35 66.85 -42.15 71.55 -38.25 76.25 -42.15 79.85 -37.35 82.75 -33.45 82.35 -28.5 L82.25 -27.75 M10.1 30.8 L-0.05 31.5 -10.3 30.9 Q-14.1 30.3 -14.05 28.15 -14.0 26.0 -10.25 24.05 -6.55 22.05 -0.05 22.05 6.45 22.05 10.05 23.9 13.65 25.7 13.7 27.9 13.75 30.1 10.1 30.8 M10.0 42.6 Q6.25 44.55 -0.25 44.55 -6.75 44.55 -10.35 42.75 -13.95 40.9 -14.0 38.7 -14.05 36.5 -10.4 35.8 L-0.25 35.1 10.05 35.7 Q13.8 36.3 13.75 38.45 13.7 40.6 10.0 42.6" fill="none" stroke="#003366" stroke-linecap="round" stroke-linejoin="round" stroke-width="2.0"/>
    <path d="M-79.6 -28.8 L-79.65 -28.8" fill="none" stroke="#003366" stroke-linecap="round" stroke-linejoin="round" stroke-width="2.0"/>
    <path d="M-9.7 91.3 L-9.7 102.05 M-0.45 91.3 L-0.45 105.3" fill="none" stroke="#003366" stroke-linecap="round" stroke-linejoin="round" stroke-width="1.5"/>
    <path d="M8.55 91.3 L8.6 103.05" fill="none" stroke="#003366" stroke-linecap="round" stroke-linejoin="round" stroke-width="1.5"/>
  </g>
</svg>
