<?xml version="1.0" encoding="UTF-8" standalone="no"?>
<svg xmlns:xlink="http://www.w3.org/1999/xlink" height="28.3px" width="20.6px" xmlns="http://www.w3.org/2000/svg">
  <g transform="matrix(1, 0, 0, 1, 10.3, 14.15)">
    <path d="M9.15 -0.3 Q7.8 8.35 -0.3 13.15 -8.0 8.45 -9.3 -0.2 L-9.3 -2.5 Q-9.3 -6.9 -6.55 -10.05 -3.85 -13.15 0.0 -13.15 3.85 -13.15 6.55 -10.05 9.3 -6.9 9.3 -2.5 L9.15 -0.3" fill="#ffffff" fill-rule="evenodd" stroke="none"/>
    <path d="M9.15 -0.3 Q7.8 8.35 -0.3 13.15 -8.0 8.45 -9.3 -0.2 L-9.3 -2.5 Q-9.3 -6.9 -6.55 -10.05 -3.85 -13.15 0.0 -13.15 3.85 -13.15 6.55 -10.05 9.3 -6.9 9.3 -2.5 L9.15 -0.3" fill="none" stroke="#333399" stroke-linecap="round" stroke-linejoin="round" stroke-width="2.0"/>
    <path d="M5.1 -0.8 Q5.1 -0.25 4.75 0.15 4.35 0.5 3.8 0.5 3.2 0.5 2.8 0.15 2.4 -0.25 2.4 -0.8 2.4 -1.4 2.8 -1.8 3.2 -2.2 3.8 -2.2 4.35 -2.2 4.75 -1.8 5.1 -1.4 5.1 -0.8 M-3.8 0.5 L-4.8 0.15 Q-5.2 -0.25 -5.2 -0.8 -5.2 -1.4 -4.8 -1.8 -4.4 -2.2 -3.8 -2.2 -3.25 -2.2 -2.85 -1.8 -2.5 -1.4 -2.5 -0.8 -2.5 -0.25 -2.85 0.15 -3.25 0.5 -3.8 0.5" fill="#6666cc" fill-rule="evenodd" stroke="none"/>
    <path d="M2.5 4.45 Q1.45 5.6 0.0 5.6 -1.5 5.6 -2.55 4.45" fill="none" stroke="#6666cc" stroke-linecap="round" stroke-linejoin="round" stroke-width="2.0"/>
  </g>
</svg>
