<?xml version="1.0" encoding="UTF-8" standalone="no"?>
<svg xmlns:xlink="http://www.w3.org/1999/xlink" height="196.35px" width="160.9px" xmlns="http://www.w3.org/2000/svg">
  <g transform="matrix(1, 0, 0, 1, 81.15, 54.45)">
    <path d="M-0.7 -53.95 Q24.1 -53.95 36.95 -39.9 49.8 -25.9 65.05 8.05 96.6 102.8 58.0 139.1 L45.15 118.0 32.3 139.1 17.05 118.0 -2.25 141.4 -18.5 118.0 -33.7 139.1 -46.6 118.0 -59.45 139.1 Q-98.05 102.8 -66.45 8.05 -51.25 -25.9 -38.4 -39.9 -25.55 -53.95 -0.7 -53.95" fill="#330000" fill-rule="evenodd" stroke="none"/>
    <path d="M-0.7 -53.95 Q24.1 -53.95 36.95 -39.9 49.8 -25.9 65.05 8.05 96.6 102.8 58.0 139.1 L45.15 118.0 32.3 139.1 17.05 118.0 -2.25 141.4 -18.5 118.0 -33.7 139.1 -46.6 118.0 -59.45 139.1 Q-98.05 102.8 -66.45 8.05 -51.25 -25.9 -38.4 -39.9 -25.55 -53.95 -0.7 -53.95" fill="none" stroke="#330000" stroke-linecap="round" stroke-linejoin="round" stroke-width="1.0"/>
  </g>
</svg>
