<?xml version="1.0" encoding="UTF-8" standalone="no"?>
<svg xmlns:xlink="http://www.w3.org/1999/xlink" height="119.15px" width="157.15px" xmlns="http://www.w3.org/2000/svg">
  <g transform="matrix(1, 0, 0, 1, 77.95, 16.95)">
    <path d="M71.2 60.5 Q72.8 85.75 78.7 101.7 L-77.45 101.7 Q-67.65 59.8 -68.35 -2.45 L69.6 -16.45 Q69.6 39.2 71.2 60.5" fill="#330000" fill-rule="evenodd" stroke="none"/>
    <path d="M71.2 60.5 Q69.6 39.2 69.6 -16.45 L-68.35 -2.45 Q-67.65 59.8 -77.45 101.7 L78.7 101.7 Q72.8 85.75 71.2 60.5" fill="none" stroke="#330000" stroke-linecap="round" stroke-linejoin="round" stroke-width="1.0"/>
  </g>
</svg>
